<?xml version="1.0" encoding="utf-8"?>
<svg width="23" height="29" viewBox="0 0 23 29" fill="none" xmlns="http://www.w3.org/2000/svg">
    <path d="M11.0287 14.1829C14.253 14.1829 16.8671 11.008 16.8671 7.0915C16.8671 3.17492 16.0088 0 11.0287 0C6.04859 0 5.19019 3.17492 5.19019 7.0915C5.19019 11.008 7.80425 14.1829 11.0287 14.1829Z" fill="white"/>
    <path d="M0.0011481 25.0107C0.000153817 24.7719 -0.000840469 24.9434 0.0011481 25.0107V25.0107Z" fill="white"/>
    <path d="M22.0557 25.1972C22.0588 25.1318 22.0567 24.7436 22.0557 25.1972V25.1972Z" fill="white"/>
    <path d="M22.0432 24.7243C21.9351 17.9017 21.044 15.9576 14.2255 14.7271C14.2255 14.7271 13.2657 15.9501 11.0285 15.9501C8.79137 15.9501 7.83139 14.7271 7.83139 14.7271C1.08723 15.9442 0.141999 17.8595 0.0177137 24.5027C0.00752225 25.0452 0.00279942 25.0737 0.000976562 25.0107C0.00139085 25.1287 0.00188781 25.3469 0.00188781 25.7275C0.00188781 25.7275 1.62522 29 11.0285 29C20.4316 29 22.0551 25.7275 22.0551 25.7275C22.0551 25.483 22.0553 25.313 22.0556 25.1973C22.0537 25.2362 22.0501 25.1608 22.0432 24.7243Z" fill="white"/>
</svg>
